<?xml version="1.0" encoding="utf-8"?>
<!DOCTYPE eagle SYSTEM "eagle.dtd">
<eagle version="8.5.1">
<drawing>
<settings>
<setting alwaysvectorfont="no"/>
<setting verticaltext="up"/>
</settings>
<grid distance="50" unitdist="mil" unit="mil" style="lines" multiple="1" display="no" altdistance="5" altunitdist="mil" altunit="mil"/>
<layers>
<layer number="1" name="Top" color="4" fill="1" visible="yes" active="yes"/>
<layer number="2" name="Route2" color="1" fill="3" visible="no" active="no"/>
<layer number="15" name="Route15" color="4" fill="6" visible="no" active="no"/>
<layer number="16" name="Bottom" color="1" fill="1" visible="yes" active="yes"/>
<layer number="17" name="Pads" color="2" fill="1" visible="yes" active="yes"/>
<layer number="18" name="Vias" color="2" fill="1" visible="yes" active="yes"/>
<layer number="19" name="Unrouted" color="6" fill="1" visible="yes" active="yes"/>
<layer number="20" name="Dimension" color="24" fill="1" visible="yes" active="yes"/>
<layer number="21" name="tPlace" color="7" fill="1" visible="yes" active="yes"/>
<layer number="22" name="bPlace" color="7" fill="1" visible="yes" active="yes"/>
<layer number="23" name="tOrigins" color="15" fill="1" visible="yes" active="yes"/>
<layer number="24" name="bOrigins" color="15" fill="1" visible="yes" active="yes"/>
<layer number="25" name="tNames" color="7" fill="1" visible="yes" active="yes"/>
<layer number="26" name="bNames" color="7" fill="1" visible="yes" active="yes"/>
<layer number="27" name="tValues" color="7" fill="1" visible="yes" active="yes"/>
<layer number="28" name="bValues" color="7" fill="1" visible="yes" active="yes"/>
<layer number="29" name="tStop" color="7" fill="3" visible="no" active="yes"/>
<layer number="30" name="bStop" color="7" fill="6" visible="no" active="yes"/>
<layer number="31" name="tCream" color="7" fill="4" visible="no" active="yes"/>
<layer number="32" name="bCream" color="7" fill="5" visible="no" active="yes"/>
<layer number="33" name="tFinish" color="6" fill="3" visible="no" active="yes"/>
<layer number="34" name="bFinish" color="6" fill="6" visible="no" active="yes"/>
<layer number="35" name="tGlue" color="7" fill="4" visible="no" active="yes"/>
<layer number="36" name="bGlue" color="7" fill="5" visible="no" active="yes"/>
<layer number="37" name="tTest" color="7" fill="1" visible="no" active="yes"/>
<layer number="38" name="bTest" color="7" fill="1" visible="no" active="yes"/>
<layer number="39" name="tKeepout" color="4" fill="11" visible="yes" active="yes"/>
<layer number="40" name="bKeepout" color="1" fill="11" visible="yes" active="yes"/>
<layer number="41" name="tRestrict" color="4" fill="10" visible="yes" active="yes"/>
<layer number="42" name="bRestrict" color="1" fill="10" visible="yes" active="yes"/>
<layer number="43" name="vRestrict" color="2" fill="10" visible="yes" active="yes"/>
<layer number="44" name="Drills" color="7" fill="1" visible="no" active="yes"/>
<layer number="45" name="Holes" color="7" fill="1" visible="no" active="yes"/>
<layer number="46" name="Milling" color="3" fill="1" visible="no" active="yes"/>
<layer number="47" name="Measures" color="7" fill="1" visible="no" active="yes"/>
<layer number="48" name="Document" color="7" fill="1" visible="yes" active="yes"/>
<layer number="49" name="Reference" color="7" fill="1" visible="yes" active="yes"/>
<layer number="50" name="dxf" color="7" fill="1" visible="no" active="no"/>
<layer number="51" name="tDocu" color="7" fill="1" visible="yes" active="yes"/>
<layer number="52" name="bDocu" color="7" fill="1" visible="yes" active="yes"/>
<layer number="53" name="tGND_GNDA" color="7" fill="9" visible="no" active="no"/>
<layer number="54" name="bGND_GNDA" color="1" fill="9" visible="no" active="no"/>
<layer number="56" name="wert" color="7" fill="1" visible="no" active="no"/>
<layer number="57" name="tCAD" color="7" fill="1" visible="no" active="no"/>
<layer number="59" name="tCarbon" color="7" fill="1" visible="no" active="no"/>
<layer number="60" name="bCarbon" color="7" fill="1" visible="no" active="no"/>
<layer number="88" name="SimResults" color="9" fill="1" visible="no" active="no"/>
<layer number="89" name="SimProbes" color="9" fill="1" visible="no" active="no"/>
<layer number="90" name="Modules" color="5" fill="1" visible="no" active="no"/>
<layer number="91" name="Nets" color="2" fill="1" visible="no" active="no"/>
<layer number="92" name="Busses" color="1" fill="1" visible="no" active="no"/>
<layer number="93" name="Pins" color="2" fill="1" visible="no" active="no"/>
<layer number="94" name="Symbols" color="4" fill="1" visible="no" active="no"/>
<layer number="95" name="Names" color="7" fill="1" visible="no" active="no"/>
<layer number="96" name="Values" color="7" fill="1" visible="no" active="no"/>
<layer number="97" name="Info" color="7" fill="1" visible="no" active="no"/>
<layer number="98" name="Guide" color="6" fill="1" visible="no" active="no"/>
<layer number="99" name="SpiceOrder" color="7" fill="1" visible="no" active="no"/>
<layer number="100" name="Muster" color="7" fill="1" visible="no" active="no"/>
<layer number="101" name="Patch_Top" color="12" fill="4" visible="yes" active="yes"/>
<layer number="102" name="Vscore" color="7" fill="1" visible="yes" active="yes"/>
<layer number="103" name="tMap" color="7" fill="1" visible="yes" active="yes"/>
<layer number="104" name="Name" color="16" fill="1" visible="yes" active="yes"/>
<layer number="105" name="tPlate" color="7" fill="1" visible="yes" active="yes"/>
<layer number="106" name="bPlate" color="7" fill="1" visible="yes" active="yes"/>
<layer number="107" name="Crop" color="7" fill="1" visible="yes" active="yes"/>
<layer number="108" name="tplace-old" color="10" fill="1" visible="yes" active="yes"/>
<layer number="109" name="ref-old" color="11" fill="1" visible="yes" active="yes"/>
<layer number="110" name="fp0" color="7" fill="1" visible="yes" active="yes"/>
<layer number="111" name="LPC17xx" color="7" fill="1" visible="yes" active="yes"/>
<layer number="112" name="tSilk" color="7" fill="1" visible="yes" active="yes"/>
<layer number="113" name="IDFDebug" color="7" fill="1" visible="yes" active="yes"/>
<layer number="114" name="Badge_Outline" color="7" fill="1" visible="yes" active="yes"/>
<layer number="115" name="ReferenceISLANDS" color="7" fill="1" visible="yes" active="yes"/>
<layer number="116" name="Patch_BOT" color="9" fill="4" visible="yes" active="yes"/>
<layer number="117" name="BACKMAAT1" color="7" fill="1" visible="yes" active="yes"/>
<layer number="118" name="Rect_Pads" color="7" fill="1" visible="yes" active="yes"/>
<layer number="119" name="KAP_TEKEN" color="7" fill="1" visible="yes" active="yes"/>
<layer number="120" name="KAP_MAAT1" color="7" fill="1" visible="yes" active="yes"/>
<layer number="121" name="_tsilk" color="7" fill="1" visible="yes" active="yes"/>
<layer number="122" name="_bsilk" color="7" fill="1" visible="yes" active="yes"/>
<layer number="123" name="tTestmark" color="7" fill="1" visible="yes" active="yes"/>
<layer number="124" name="bTestmark" color="7" fill="1" visible="yes" active="yes"/>
<layer number="125" name="_tNames" color="7" fill="1" visible="yes" active="yes"/>
<layer number="126" name="_bNames" color="7" fill="1" visible="yes" active="yes"/>
<layer number="127" name="_tValues" color="7" fill="1" visible="yes" active="yes"/>
<layer number="128" name="_bValues" color="7" fill="1" visible="yes" active="yes"/>
<layer number="129" name="Mask" color="7" fill="1" visible="yes" active="yes"/>
<layer number="130" name="SMDSTROOK" color="7" fill="1" visible="yes" active="yes"/>
<layer number="131" name="tAdjust" color="7" fill="1" visible="yes" active="yes"/>
<layer number="132" name="bAdjust" color="7" fill="1" visible="yes" active="yes"/>
<layer number="144" name="Drill_legend" color="7" fill="1" visible="yes" active="yes"/>
<layer number="150" name="Notes" color="7" fill="1" visible="yes" active="yes"/>
<layer number="151" name="HeatSink" color="7" fill="1" visible="yes" active="yes"/>
<layer number="152" name="_bDocu" color="7" fill="1" visible="yes" active="yes"/>
<layer number="153" name="FabDoc1" color="7" fill="1" visible="yes" active="yes"/>
<layer number="154" name="FabDoc2" color="7" fill="1" visible="yes" active="yes"/>
<layer number="155" name="FabDoc3" color="7" fill="1" visible="yes" active="yes"/>
<layer number="199" name="Contour" color="7" fill="1" visible="yes" active="yes"/>
<layer number="200" name="scaled_image_import" color="1" fill="10" visible="yes" active="yes"/>
<layer number="201" name="201bmp" color="2" fill="10" visible="yes" active="yes"/>
<layer number="202" name="202bmp" color="3" fill="10" visible="yes" active="yes"/>
<layer number="203" name="203bmp" color="4" fill="10" visible="yes" active="yes"/>
<layer number="204" name="204bmp" color="5" fill="10" visible="yes" active="yes"/>
<layer number="205" name="205bmp" color="6" fill="10" visible="yes" active="yes"/>
<layer number="206" name="206bmp" color="7" fill="10" visible="yes" active="yes"/>
<layer number="207" name="207bmp" color="8" fill="10" visible="yes" active="yes"/>
<layer number="208" name="208bmp" color="9" fill="10" visible="yes" active="yes"/>
<layer number="209" name="209bmp" color="7" fill="1" visible="yes" active="yes"/>
<layer number="210" name="210bmp" color="7" fill="1" visible="yes" active="yes"/>
<layer number="211" name="211bmp" color="7" fill="1" visible="yes" active="yes"/>
<layer number="212" name="212bmp" color="7" fill="1" visible="yes" active="yes"/>
<layer number="213" name="213bmp" color="7" fill="1" visible="yes" active="yes"/>
<layer number="214" name="214bmp" color="7" fill="1" visible="yes" active="yes"/>
<layer number="215" name="215bmp" color="7" fill="1" visible="yes" active="yes"/>
<layer number="216" name="216bmp" color="7" fill="1" visible="yes" active="yes"/>
<layer number="217" name="217bmp" color="18" fill="1" visible="no" active="no"/>
<layer number="218" name="218bmp" color="19" fill="1" visible="no" active="no"/>
<layer number="219" name="219bmp" color="20" fill="1" visible="no" active="no"/>
<layer number="220" name="220bmp" color="21" fill="1" visible="no" active="no"/>
<layer number="221" name="221bmp" color="22" fill="1" visible="no" active="no"/>
<layer number="222" name="222bmp" color="23" fill="1" visible="no" active="no"/>
<layer number="223" name="223bmp" color="24" fill="1" visible="no" active="no"/>
<layer number="224" name="224bmp" color="25" fill="1" visible="no" active="no"/>
<layer number="225" name="225bmp" color="7" fill="1" visible="yes" active="yes"/>
<layer number="226" name="226bmp" color="7" fill="1" visible="yes" active="yes"/>
<layer number="227" name="227bmp" color="7" fill="1" visible="yes" active="yes"/>
<layer number="228" name="228bmp" color="7" fill="1" visible="yes" active="yes"/>
<layer number="229" name="229bmp" color="7" fill="1" visible="yes" active="yes"/>
<layer number="230" name="230bmp" color="7" fill="1" visible="yes" active="yes"/>
<layer number="231" name="231bmp" color="7" fill="1" visible="yes" active="yes"/>
<layer number="232" name="Eagle3D_PG2" color="7" fill="1" visible="no" active="no"/>
<layer number="233" name="Eagle3D_PG3" color="7" fill="1" visible="no" active="no"/>
<layer number="248" name="Housing" color="7" fill="1" visible="yes" active="yes"/>
<layer number="249" name="Edge" color="7" fill="1" visible="yes" active="yes"/>
<layer number="250" name="Descript" color="3" fill="1" visible="no" active="no"/>
<layer number="251" name="SMDround" color="12" fill="11" visible="no" active="no"/>
<layer number="254" name="cooling" color="7" fill="1" visible="yes" active="yes"/>
<layer number="255" name="routoute" color="7" fill="1" visible="yes" active="yes"/>
</layers>
<board>
<plain>
<wire x1="0" y1="0" x2="160" y2="0" width="0" layer="20"/>
<wire x1="160" y1="0" x2="160" y2="100" width="0" layer="20"/>
<wire x1="160" y1="100" x2="0" y2="100" width="0" layer="20"/>
<wire x1="0" y1="100" x2="0" y2="0" width="0" layer="20"/>
<text x="12.7" y="62.23" size="1.778" layer="25">Pay no attention to USB, power connectors: temporary artifact of the shield CAD file used for initial layout:
this will change.</text>
</plain>
<libraries>
<library name="SparkFun-Boards">
<description>&lt;h3&gt;SparkFun Electronics' preferred foot prints&lt;/h3&gt;
This library contains footprints for SparkFun breakout boards, microcontrollers (Arduino, Particle, Teensy, etc.),  breadboards, non-RF modules, etc.
&lt;br&gt;
&lt;br&gt;
We've spent an enormous amount of time creating and checking these footprints and parts, but it is &lt;b&gt; the end user's responsibility&lt;/b&gt; to ensure correctness and suitablity for a given componet or application. 
&lt;br&gt;
&lt;br&gt;If you enjoy using this library, please buy one of our products at &lt;a href=" www.sparkfun.com"&gt;SparkFun.com&lt;/a&gt;.
&lt;br&gt;
&lt;br&gt;
&lt;b&gt;Licensing:&lt;/b&gt; Creative Commons ShareAlike 4.0 International - https://creativecommons.org/licenses/by-sa/4.0/ 
&lt;br&gt;
&lt;br&gt;
You are welcome to use this library for commercial purposes. For attribution, we ask that when you begin to sell your device using our footprint, you email us with a link to the product being sold. We want bragging rights that we helped (in a very small part) to create your 8th world wonder. We would like the opportunity to feature your device on our homepage.</description>
<packages>
<package name="UNO_R3_SHIELD">
<description>&lt;h3&gt;Arduino Uno-Compatible Footprint&lt;/h3&gt;
No holes, no ICSP connections.
&lt;p&gt;Specifications:
&lt;ul&gt;&lt;li&gt;Pin count: 32&lt;/li&gt;
&lt;li&gt;Pin pitch: 0.1"&lt;/li&gt;
&lt;li&gt;Area:2.1x2.35"&lt;/li&gt;
&lt;/ul&gt;&lt;/p&gt;
&lt;p&gt;Example device(s):
&lt;ul&gt;&lt;li&gt;Arduino Uno R3 Shield&lt;/li&gt;
&lt;/ul&gt;&lt;/p&gt;</description>
<wire x1="-24.13" y1="-29.21" x2="-17.17" y2="-29.21" width="0.254" layer="51"/>
<wire x1="-17.17" y1="-29.21" x2="-4.97" y2="-29.21" width="0.254" layer="51"/>
<wire x1="-4.97" y1="-29.21" x2="24.13" y2="-29.21" width="0.254" layer="51"/>
<wire x1="24.13" y1="-29.21" x2="26.67" y2="-26.67" width="0.254" layer="51"/>
<wire x1="26.67" y1="27.94" x2="24.13" y2="27.94" width="0.254" layer="51"/>
<wire x1="24.13" y1="27.94" x2="21.59" y2="30.48" width="0.254" layer="51"/>
<wire x1="-26.67" y1="26.67" x2="-26.67" y2="-26.67" width="0.254" layer="51"/>
<wire x1="-26.67" y1="-26.67" x2="-24.13" y2="-29.21" width="0.254" layer="51"/>
<wire x1="21.59" y1="30.48" x2="-11.43" y2="30.48" width="0.254" layer="51"/>
<wire x1="-11.43" y1="30.48" x2="-13.97" y2="27.94" width="0.254" layer="51"/>
<wire x1="-13.97" y1="27.94" x2="-25.4" y2="27.94" width="0.254" layer="51"/>
<wire x1="-25.4" y1="27.94" x2="-26.67" y2="26.67" width="0.254" layer="51"/>
<wire x1="26.67" y1="-26.67" x2="26.67" y2="27.94" width="0.254" layer="51"/>
<wire x1="-17.17" y1="-44.71" x2="-4.97" y2="-44.71" width="0.254" layer="51"/>
<wire x1="13.53" y1="-39.51" x2="22.53" y2="-39.51" width="0.254" layer="51"/>
<wire x1="-17.17" y1="-44.71" x2="-17.17" y2="-29.21" width="0.254" layer="51"/>
<wire x1="-4.97" y1="-44.71" x2="-4.97" y2="-29.21" width="0.254" layer="51"/>
<wire x1="13.53" y1="-39.51" x2="13.53" y2="-29.31" width="0.254" layer="51"/>
<wire x1="22.53" y1="-39.51" x2="22.53" y2="-29.31" width="0.254" layer="51"/>
<wire x1="-25.4" y1="26.67" x2="-22.86" y2="26.67" width="0.127" layer="51"/>
<wire x1="-22.86" y1="26.67" x2="-22.86" y2="6.35" width="0.127" layer="51"/>
<wire x1="-22.86" y1="6.35" x2="-25.4" y2="6.35" width="0.127" layer="51"/>
<wire x1="-25.4" y1="6.35" x2="-25.4" y2="26.67" width="0.127" layer="51"/>
<wire x1="-25.4" y1="5.08" x2="-22.86" y2="5.08" width="0.127" layer="51"/>
<wire x1="-22.86" y1="5.08" x2="-22.86" y2="-20.32" width="0.127" layer="51"/>
<wire x1="-22.86" y1="-20.32" x2="-25.4" y2="-20.32" width="0.127" layer="51"/>
<wire x1="-25.4" y1="-20.32" x2="-25.4" y2="5.08" width="0.127" layer="51"/>
<wire x1="22.86" y1="-11.43" x2="25.4" y2="-11.43" width="0.127" layer="51"/>
<wire x1="25.4" y1="-11.43" x2="25.4" y2="8.89" width="0.127" layer="51"/>
<wire x1="25.4" y1="8.89" x2="22.86" y2="8.89" width="0.127" layer="51"/>
<wire x1="22.86" y1="8.89" x2="22.86" y2="-11.43" width="0.127" layer="51"/>
<wire x1="25.4" y1="11.43" x2="22.86" y2="11.43" width="0.127" layer="51"/>
<wire x1="22.86" y1="11.43" x2="22.86" y2="26.67" width="0.127" layer="51"/>
<wire x1="22.86" y1="26.67" x2="25.4" y2="26.67" width="0.127" layer="51"/>
<wire x1="25.4" y1="26.67" x2="25.4" y2="11.43" width="0.127" layer="51"/>
<pad name="RES" x="24.13" y="-5.08" drill="1.016" diameter="1.8796" rot="R90"/>
<pad name="3.3V" x="24.13" y="-2.54" drill="1.016" diameter="1.8796" rot="R90"/>
<pad name="5V" x="24.13" y="0" drill="1.016" diameter="1.8796" rot="R90"/>
<pad name="GND@0" x="24.13" y="2.54" drill="1.016" diameter="1.8796" rot="R90"/>
<pad name="GND@1" x="24.13" y="5.08" drill="1.016" diameter="1.8796" rot="R90"/>
<pad name="VIN" x="24.13" y="7.62" drill="1.016" diameter="1.8796" rot="R90"/>
<pad name="A0" x="24.13" y="12.7" drill="1.016" diameter="1.8796" rot="R90"/>
<pad name="A1" x="24.13" y="15.24" drill="1.016" diameter="1.8796" rot="R90"/>
<pad name="A2" x="24.13" y="17.78" drill="1.016" diameter="1.8796" rot="R90"/>
<pad name="A3" x="24.13" y="20.32" drill="1.016" diameter="1.8796" rot="R90"/>
<pad name="A4" x="24.13" y="22.86" drill="1.016" diameter="1.8796" rot="R90"/>
<pad name="A5" x="24.13" y="25.4" drill="1.016" diameter="1.8796" rot="R90"/>
<pad name="RX" x="-24.13" y="25.4" drill="1.016" diameter="1.8796" rot="R90"/>
<pad name="TX" x="-24.13" y="22.86" drill="1.016" diameter="1.8796" rot="R90"/>
<pad name="D2" x="-24.13" y="20.32" drill="1.016" diameter="1.8796" rot="R90"/>
<pad name="D3" x="-24.13" y="17.78" drill="1.016" diameter="1.8796" rot="R90"/>
<pad name="D4" x="-24.13" y="15.24" drill="1.016" diameter="1.8796" rot="R90"/>
<pad name="D5" x="-24.13" y="12.7" drill="1.016" diameter="1.8796" rot="R90"/>
<pad name="D6" x="-24.13" y="10.16" drill="1.016" diameter="1.8796" rot="R90"/>
<pad name="D7" x="-24.13" y="7.62" drill="1.016" diameter="1.8796" rot="R90"/>
<pad name="D8" x="-24.13" y="3.81" drill="1.016" diameter="1.8796" rot="R90"/>
<pad name="D9" x="-24.13" y="1.27" drill="1.016" diameter="1.8796" rot="R90"/>
<pad name="D10" x="-24.13" y="-1.27" drill="1.016" diameter="1.8796" rot="R90"/>
<pad name="D11" x="-24.13" y="-3.81" drill="1.016" diameter="1.8796" rot="R90"/>
<pad name="D12" x="-24.13" y="-6.35" drill="1.016" diameter="1.8796" rot="R90"/>
<pad name="D13" x="-24.13" y="-8.89" drill="1.016" diameter="1.8796" rot="R90"/>
<pad name="GND@2" x="-24.13" y="-11.43" drill="1.016" diameter="1.8796" rot="R90"/>
<pad name="AREF" x="-24.13" y="-13.97" drill="1.016" diameter="1.8796" rot="R90"/>
<text x="22.7457" y="3.048" size="1.016" layer="21" font="vector" ratio="15" rot="R180">GND</text>
<text x="22.7457" y="5.588" size="1.016" layer="21" font="vector" ratio="15" rot="R180">GND</text>
<text x="22.7457" y="0.508" size="1.016" layer="21" font="vector" ratio="15" rot="R180">+5V</text>
<text x="22.7457" y="-4.572" size="1.016" layer="21" font="vector" ratio="15" rot="R180">RST</text>
<text x="22.7457" y="8.128" size="1.016" layer="21" font="vector" ratio="15" rot="R180">VIN</text>
<text x="22.7457" y="-2.032" size="1.016" layer="21" font="vector" ratio="15" rot="R180">+3.3V</text>
<text x="22.7457" y="13.208" size="1.016" layer="21" font="vector" ratio="15" rot="R180">0</text>
<text x="22.7457" y="15.748" size="1.016" layer="21" font="vector" ratio="15" rot="R180">1</text>
<text x="22.7457" y="18.288" size="1.016" layer="21" font="vector" ratio="15" rot="R180">2</text>
<text x="22.7457" y="20.828" size="1.016" layer="21" font="vector" ratio="15" rot="R180">3</text>
<text x="22.7457" y="23.368" size="1.016" layer="21" font="vector" ratio="15" rot="R180">4</text>
<text x="22.7457" y="25.908" size="1.016" layer="21" font="vector" ratio="15" rot="R180">5</text>
<text x="-22.86" y="-11.938" size="1.016" layer="21" font="vector" ratio="15">GND</text>
<text x="-22.86" y="-9.398" size="1.016" layer="21" font="vector" ratio="15">13</text>
<text x="-22.86" y="-6.858" size="1.016" layer="21" font="vector" ratio="15">12</text>
<text x="-22.86" y="-4.318" size="1.016" layer="21" font="vector" ratio="15">11</text>
<text x="-22.86" y="-14.478" size="1.016" layer="21" font="vector" ratio="15">AREF</text>
<text x="-22.86" y="-1.778" size="1.016" layer="21" font="vector" ratio="15">10</text>
<text x="-22.86" y="0.762" size="1.016" layer="21" font="vector" ratio="15">9</text>
<text x="-22.86" y="3.302" size="1.016" layer="21" font="vector" ratio="15">8</text>
<text x="-22.86" y="7.112" size="1.016" layer="21" font="vector" ratio="15">7</text>
<text x="-22.86" y="9.652" size="1.016" layer="21" font="vector" ratio="15">6</text>
<text x="-22.86" y="12.192" size="1.016" layer="21" font="vector" ratio="15">5</text>
<text x="-22.86" y="14.732" size="1.016" layer="21" font="vector" ratio="15">4</text>
<text x="-22.86" y="17.272" size="1.016" layer="21" font="vector" ratio="15">3</text>
<text x="-22.86" y="19.812" size="1.016" layer="21" font="vector" ratio="15">2</text>
<text x="-22.86" y="22.352" size="1.016" layer="21" font="vector" ratio="15">TX</text>
<text x="-22.86" y="24.892" size="1.016" layer="21" font="vector" ratio="15">RX</text>
<pad name="SDA" x="-24.13" y="-16.51" drill="1.016" diameter="1.8796" rot="R90"/>
<pad name="SCL" x="-24.13" y="-19.05" drill="1.016" diameter="1.8796" rot="R90"/>
<text x="-22.86" y="-17.018" size="1.016" layer="21" font="vector" ratio="15">SDA</text>
<text x="-22.86" y="-19.558" size="1.016" layer="21" font="vector" ratio="15">SCL</text>
<pad name="IOREF" x="24.13" y="-7.62" drill="1.016" diameter="1.8796" rot="R90"/>
<pad name="NC" x="24.13" y="-10.16" drill="1.016" diameter="1.8796" rot="R90"/>
<text x="22.7457" y="-7.112" size="1.016" layer="21" font="vector" ratio="15" rot="R180">IOREF</text>
<wire x1="-4.445" y1="24.13" x2="-5.08" y2="24.765" width="0.254" layer="51"/>
<wire x1="-5.08" y1="24.765" x2="-5.08" y2="28.575" width="0.254" layer="51"/>
<wire x1="-5.08" y1="28.575" x2="-4.445" y2="29.21" width="0.254" layer="51"/>
<wire x1="-4.445" y1="29.21" x2="1.905" y2="29.21" width="0.254" layer="51"/>
<wire x1="1.905" y1="29.21" x2="2.54" y2="28.575" width="0.254" layer="51"/>
<wire x1="2.54" y1="28.575" x2="2.54" y2="24.765" width="0.254" layer="51"/>
<wire x1="2.54" y1="24.765" x2="1.905" y2="24.13" width="0.254" layer="51"/>
<wire x1="1.905" y1="24.13" x2="-4.445" y2="24.13" width="0.254" layer="51"/>
<text x="0.635" y="23.241" size="0.508" layer="51" font="vector" ratio="15">RST</text>
<text x="-1.778" y="26.416" size="0.508" layer="51" font="vector" ratio="15">ISP</text>
<wire x1="-3.175" y1="23.622" x2="-4.445" y2="23.622" width="0.2032" layer="51"/>
<text x="-12.065" y="-44.069" size="0.508" layer="51" font="vector" ratio="15">USB</text>
<text x="15.875" y="-38.989" size="0.508" layer="51" font="vector" ratio="15">POWER JACK</text>
<text x="0" y="30.734" size="0.6096" layer="25" font="vector" ratio="20" align="bottom-center">&gt;NAME</text>
<text x="0" y="-29.718" size="0.6096" layer="27" font="vector" ratio="20" align="top-center">&gt;VALUE</text>
</package>
<package name="MICRO-SDCARD">
<description>&lt;h3&gt;microSD Card Footprint&lt;/h3&gt;
Silk outline with pads for SMD. 
&lt;p&gt;Specifications:
&lt;ul&gt;&lt;li&gt;Pin count:8&lt;/li&gt;
&lt;li&gt;Area:0.45x0.6 in&lt;/li&gt;
&lt;/ul&gt;&lt;/p&gt;
&lt;p&gt;Example device(s):
&lt;ul&gt;&lt;li&gt;MicroSD Card&lt;/li&gt;
&lt;/ul&gt;&lt;/p&gt;</description>
<wire x1="5.08" y1="-7.62" x2="5.08" y2="7.38" width="0.127" layer="21"/>
<wire x1="5.08" y1="7.38" x2="-5.92" y2="7.38" width="0.127" layer="21"/>
<wire x1="-5.92" y1="1.98" x2="-5.52" y2="1.58" width="0.127" layer="21"/>
<wire x1="-5.52" y1="1.58" x2="-5.52" y2="-0.22" width="0.127" layer="21"/>
<wire x1="-5.52" y1="-0.22" x2="-5.92" y2="-0.62" width="0.127" layer="21"/>
<wire x1="-5.92" y1="-0.62" x2="-5.92" y2="-1.62" width="0.127" layer="21"/>
<wire x1="-5.92" y1="-1.62" x2="-4.92" y2="-2.62" width="0.127" layer="21"/>
<wire x1="-4.92" y1="-2.62" x2="-4.92" y2="-7.62" width="0.127" layer="21"/>
<wire x1="-4.92" y1="-7.62" x2="5.08" y2="-7.62" width="0.127" layer="21"/>
<wire x1="-5.92" y1="7.38" x2="-5.92" y2="1.98" width="0.127" layer="21"/>
<smd name="DAT1" x="4.08" y="-5.32" dx="0.85" dy="3.25" layer="16"/>
<smd name="DAT0" x="2.98" y="-5.32" dx="0.85" dy="3.25" layer="16"/>
<smd name="GND" x="1.88" y="-5.52" dx="0.85" dy="3.75" layer="16" rot="R180"/>
<smd name="CLK" x="0.78" y="-5.32" dx="0.85" dy="3.25" layer="16"/>
<smd name="VCC" x="-0.32" y="-5.52" dx="0.85" dy="3.75" layer="16"/>
<smd name="CMD" x="-1.42" y="-5.32" dx="0.85" dy="3.25" layer="16"/>
<smd name="CD/DAT3" x="-2.52" y="-5.32" dx="0.85" dy="3.25" layer="16"/>
<smd name="DAT2" x="-3.62" y="-5.32" dx="0.85" dy="3.25" layer="16"/>
<text x="0" y="7.62" size="0.6096" layer="25" font="vector" ratio="20" align="bottom-center">&gt;Name</text>
<text x="0" y="-7.874" size="0.6096" layer="27" font="vector" ratio="20" align="top-center">&gt;Value</text>
</package>
</packages>
</library>
<library name="adafruit">
<packages>
<package name="C0805">
<description>&lt;b&gt;CAPACITOR&lt;/b&gt;&lt;p&gt;
chip</description>
<wire x1="-1.973" y1="0.983" x2="1.973" y2="0.983" width="0.0508" layer="39"/>
<wire x1="1.973" y1="-0.983" x2="-1.973" y2="-0.983" width="0.0508" layer="39"/>
<wire x1="-1.973" y1="-0.983" x2="-1.973" y2="0.983" width="0.0508" layer="39"/>
<wire x1="-0.381" y1="0.66" x2="0.381" y2="0.66" width="0.1016" layer="51"/>
<wire x1="-0.356" y1="-0.66" x2="0.381" y2="-0.66" width="0.1016" layer="51"/>
<wire x1="1.973" y1="0.983" x2="1.973" y2="-0.983" width="0.0508" layer="39"/>
<smd name="1" x="-0.85" y="0" dx="1.3" dy="1.5" layer="1"/>
<smd name="2" x="0.85" y="0" dx="1.3" dy="1.5" layer="1"/>
<text x="-0.889" y="1.016" size="1.27" layer="25">&gt;NAME</text>
<text x="-0.889" y="-2.286" size="1.27" layer="27">&gt;VALUE</text>
<rectangle x1="-1.0922" y1="-0.7239" x2="-0.3421" y2="0.7262" layer="51"/>
<rectangle x1="0.3556" y1="-0.7239" x2="1.1057" y2="0.7262" layer="51"/>
<rectangle x1="-0.1001" y1="-0.4001" x2="0.1001" y2="0.4001" layer="35"/>
</package>
<package name="M0805">
<description>&lt;b&gt;RESISTOR&lt;/b&gt;&lt;p&gt;
MELF 0.10 W</description>
<wire x1="-1.973" y1="0.983" x2="1.973" y2="0.983" width="0.0508" layer="39"/>
<wire x1="1.973" y1="-0.983" x2="-1.973" y2="-0.983" width="0.0508" layer="39"/>
<wire x1="-1.973" y1="-0.983" x2="-1.973" y2="0.983" width="0.0508" layer="39"/>
<wire x1="1.973" y1="0.983" x2="1.973" y2="-0.983" width="0.0508" layer="39"/>
<wire x1="0.7112" y1="0.635" x2="-0.7112" y2="0.635" width="0.1524" layer="51"/>
<wire x1="0.7112" y1="-0.635" x2="-0.7112" y2="-0.635" width="0.1524" layer="51"/>
<smd name="1" x="-0.95" y="0" dx="1.3" dy="1.6" layer="1"/>
<smd name="2" x="0.95" y="0" dx="1.3" dy="1.6" layer="1"/>
<text x="-1.016" y="1.016" size="1.27" layer="25">&gt;NAME</text>
<text x="-1.016" y="-2.286" size="1.27" layer="27">&gt;VALUE</text>
<rectangle x1="-1.0414" y1="-0.7112" x2="-0.6858" y2="0.7112" layer="51"/>
<rectangle x1="0.6858" y1="-0.7112" x2="1.0414" y2="0.7112" layer="51"/>
<rectangle x1="-0.1999" y1="-0.5999" x2="0.1999" y2="0.5999" layer="35"/>
</package>
</packages>
</library>
<library name="Atmel_By_element14_Batch_1-00">
<description>Developed by element14 :&lt;br&gt;
element14 CAD Library consolidation.ulp
at 27/07/2012 14:02:49</description>
<packages>
<package name="DIP254P1524X483-40">
<pad name="1" x="-15.24" y="48.26" drill="0.9906" shape="square"/>
<pad name="2" x="-15.24" y="45.72" drill="0.9906"/>
<pad name="3" x="-15.24" y="43.18" drill="0.9906"/>
<pad name="4" x="-15.24" y="40.64" drill="0.9906"/>
<pad name="5" x="-15.24" y="38.1" drill="0.9906"/>
<pad name="6" x="-15.24" y="35.56" drill="0.9906"/>
<pad name="7" x="-15.24" y="33.02" drill="0.9906"/>
<pad name="8" x="-15.24" y="30.48" drill="0.9906"/>
<pad name="9" x="-15.24" y="27.94" drill="0.9906"/>
<pad name="10" x="-15.24" y="25.4" drill="0.9906"/>
<pad name="11" x="-15.24" y="22.86" drill="0.9906"/>
<pad name="12" x="-15.24" y="20.32" drill="0.9906"/>
<pad name="13" x="-15.24" y="17.78" drill="0.9906"/>
<pad name="14" x="-15.24" y="15.24" drill="0.9906"/>
<pad name="15" x="-15.24" y="12.7" drill="0.9906"/>
<pad name="16" x="-15.24" y="10.16" drill="0.9906"/>
<pad name="17" x="-15.24" y="7.62" drill="0.9906"/>
<pad name="18" x="-15.24" y="5.08" drill="0.9906"/>
<pad name="19" x="-15.24" y="2.54" drill="0.9906"/>
<pad name="20" x="-15.24" y="0" drill="0.9906"/>
<pad name="21" x="0" y="0" drill="0.9906"/>
<pad name="22" x="0" y="2.54" drill="0.9906"/>
<pad name="23" x="0" y="5.08" drill="0.9906"/>
<pad name="24" x="0" y="7.62" drill="0.9906"/>
<pad name="25" x="0" y="10.16" drill="0.9906"/>
<pad name="26" x="0" y="12.7" drill="0.9906"/>
<pad name="27" x="0" y="15.24" drill="0.9906"/>
<pad name="28" x="0" y="17.78" drill="0.9906"/>
<pad name="29" x="0" y="20.32" drill="0.9906"/>
<pad name="30" x="0" y="22.86" drill="0.9906"/>
<pad name="31" x="0" y="25.4" drill="0.9906"/>
<pad name="32" x="0" y="27.94" drill="0.9906"/>
<pad name="33" x="0" y="30.48" drill="0.9906"/>
<pad name="34" x="0" y="33.02" drill="0.9906"/>
<pad name="35" x="0" y="35.56" drill="0.9906"/>
<pad name="36" x="0" y="38.1" drill="0.9906"/>
<pad name="37" x="0" y="40.64" drill="0.9906"/>
<pad name="38" x="0" y="43.18" drill="0.9906"/>
<pad name="39" x="0" y="45.72" drill="0.9906"/>
<pad name="40" x="0" y="48.26" drill="0.9906"/>
<wire x1="-0.635" y1="49.1236" x2="-0.635" y2="50.419" width="0.1524" layer="21"/>
<wire x1="-0.635" y1="46.5836" x2="-0.635" y2="47.3964" width="0.1524" layer="21"/>
<wire x1="-0.635" y1="44.0436" x2="-0.635" y2="44.8564" width="0.1524" layer="21"/>
<wire x1="-0.635" y1="41.5036" x2="-0.635" y2="42.3164" width="0.1524" layer="21"/>
<wire x1="-0.635" y1="38.9636" x2="-0.635" y2="39.7764" width="0.1524" layer="21"/>
<wire x1="-14.605" y1="-2.159" x2="-0.635" y2="-2.159" width="0.1524" layer="21"/>
<wire x1="-0.635" y1="-2.159" x2="-0.635" y2="-0.8636" width="0.1524" layer="21"/>
<wire x1="-0.635" y1="50.419" x2="-7.3152" y2="50.419" width="0.1524" layer="21"/>
<wire x1="-7.3152" y1="50.419" x2="-7.9248" y2="50.419" width="0.1524" layer="21"/>
<wire x1="-7.9248" y1="50.419" x2="-14.605" y2="50.419" width="0.1524" layer="21"/>
<wire x1="-14.605" y1="50.419" x2="-14.605" y2="49.3522" width="0.1524" layer="21"/>
<wire x1="-14.605" y1="47.1678" x2="-14.605" y2="46.5836" width="0.1524" layer="21"/>
<wire x1="-14.605" y1="44.8564" x2="-14.605" y2="44.0436" width="0.1524" layer="21"/>
<wire x1="-14.605" y1="42.3164" x2="-14.605" y2="41.5036" width="0.1524" layer="21"/>
<wire x1="-14.605" y1="39.7764" x2="-14.605" y2="38.9636" width="0.1524" layer="21"/>
<wire x1="-14.605" y1="37.2364" x2="-14.605" y2="36.4236" width="0.1524" layer="21"/>
<wire x1="-14.605" y1="34.6964" x2="-14.605" y2="33.8836" width="0.1524" layer="21"/>
<wire x1="-14.605" y1="32.1564" x2="-14.605" y2="31.3436" width="0.1524" layer="21"/>
<wire x1="-14.605" y1="29.6164" x2="-14.605" y2="28.8036" width="0.1524" layer="21"/>
<wire x1="-14.605" y1="27.0764" x2="-14.605" y2="26.2636" width="0.1524" layer="21"/>
<wire x1="-14.605" y1="24.5364" x2="-14.605" y2="23.7236" width="0.1524" layer="21"/>
<wire x1="-14.605" y1="21.9964" x2="-14.605" y2="21.1836" width="0.1524" layer="21"/>
<wire x1="-14.605" y1="19.4564" x2="-14.605" y2="18.6436" width="0.1524" layer="21"/>
<wire x1="-14.605" y1="16.9164" x2="-14.605" y2="16.1036" width="0.1524" layer="21"/>
<wire x1="-14.605" y1="14.3764" x2="-14.605" y2="13.5636" width="0.1524" layer="21"/>
<wire x1="-14.605" y1="11.8364" x2="-14.605" y2="11.0236" width="0.1524" layer="21"/>
<wire x1="-14.605" y1="9.2964" x2="-14.605" y2="8.4836" width="0.1524" layer="21"/>
<wire x1="-14.605" y1="6.7564" x2="-14.605" y2="5.9436" width="0.1524" layer="21"/>
<wire x1="-14.605" y1="4.2164" x2="-14.605" y2="3.4036" width="0.1524" layer="21"/>
<wire x1="-14.605" y1="1.6764" x2="-14.605" y2="0.8636" width="0.1524" layer="21"/>
<wire x1="-14.605" y1="-0.8636" x2="-14.605" y2="-2.159" width="0.1524" layer="21"/>
<wire x1="-0.635" y1="0.8636" x2="-0.635" y2="1.6764" width="0.1524" layer="21"/>
<wire x1="-0.635" y1="3.4036" x2="-0.635" y2="4.2164" width="0.1524" layer="21"/>
<wire x1="-0.635" y1="5.9436" x2="-0.635" y2="6.7564" width="0.1524" layer="21"/>
<wire x1="-0.635" y1="8.4836" x2="-0.635" y2="9.2964" width="0.1524" layer="21"/>
<wire x1="-0.635" y1="11.0236" x2="-0.635" y2="11.8364" width="0.1524" layer="21"/>
<wire x1="-0.635" y1="13.5636" x2="-0.635" y2="14.3764" width="0.1524" layer="21"/>
<wire x1="-0.635" y1="16.1036" x2="-0.635" y2="16.9164" width="0.1524" layer="21"/>
<wire x1="-0.635" y1="18.6436" x2="-0.635" y2="19.4564" width="0.1524" layer="21"/>
<wire x1="-0.635" y1="21.1836" x2="-0.635" y2="21.9964" width="0.1524" layer="21"/>
<wire x1="-0.635" y1="23.7236" x2="-0.635" y2="24.5364" width="0.1524" layer="21"/>
<wire x1="-0.635" y1="26.2636" x2="-0.635" y2="27.0764" width="0.1524" layer="21"/>
<wire x1="-0.635" y1="28.8036" x2="-0.635" y2="29.6164" width="0.1524" layer="21"/>
<wire x1="-0.635" y1="31.3436" x2="-0.635" y2="32.1564" width="0.1524" layer="21"/>
<wire x1="-0.635" y1="33.8836" x2="-0.635" y2="34.6964" width="0.1524" layer="21"/>
<wire x1="-0.635" y1="36.4236" x2="-0.635" y2="37.2364" width="0.1524" layer="21"/>
<wire x1="-7.3152" y1="50.419" x2="-7.9248" y2="50.419" width="0.1524" layer="21" curve="-180"/>
<text x="-15.8242" y="49.1236" size="1.27" layer="21" ratio="6" rot="SR0">*</text>
<wire x1="-14.605" y1="47.752" x2="-14.605" y2="48.768" width="0" layer="51"/>
<wire x1="-14.605" y1="48.768" x2="-15.748" y2="48.768" width="0" layer="51"/>
<wire x1="-15.748" y1="48.768" x2="-15.748" y2="47.752" width="0" layer="51"/>
<wire x1="-15.748" y1="47.752" x2="-14.605" y2="47.752" width="0" layer="51"/>
<wire x1="-14.605" y1="45.212" x2="-14.605" y2="46.228" width="0" layer="51"/>
<wire x1="-14.605" y1="46.228" x2="-15.748" y2="46.228" width="0" layer="51"/>
<wire x1="-15.748" y1="46.228" x2="-15.748" y2="45.212" width="0" layer="51"/>
<wire x1="-15.748" y1="45.212" x2="-14.605" y2="45.212" width="0" layer="51"/>
<wire x1="-14.605" y1="42.672" x2="-14.605" y2="43.688" width="0" layer="51"/>
<wire x1="-14.605" y1="43.688" x2="-15.748" y2="43.688" width="0" layer="51"/>
<wire x1="-15.748" y1="43.688" x2="-15.748" y2="42.672" width="0" layer="51"/>
<wire x1="-15.748" y1="42.672" x2="-14.605" y2="42.672" width="0" layer="51"/>
<wire x1="-14.605" y1="40.132" x2="-14.605" y2="41.148" width="0" layer="51"/>
<wire x1="-14.605" y1="41.148" x2="-15.748" y2="41.148" width="0" layer="51"/>
<wire x1="-15.748" y1="41.148" x2="-15.748" y2="40.132" width="0" layer="51"/>
<wire x1="-15.748" y1="40.132" x2="-14.605" y2="40.132" width="0" layer="51"/>
<wire x1="-14.605" y1="37.592" x2="-14.605" y2="38.608" width="0" layer="51"/>
<wire x1="-14.605" y1="38.608" x2="-15.748" y2="38.608" width="0" layer="51"/>
<wire x1="-15.748" y1="38.608" x2="-15.748" y2="37.592" width="0" layer="51"/>
<wire x1="-15.748" y1="37.592" x2="-14.605" y2="37.592" width="0" layer="51"/>
<wire x1="-14.605" y1="35.052" x2="-14.605" y2="36.068" width="0" layer="51"/>
<wire x1="-14.605" y1="36.068" x2="-15.748" y2="36.068" width="0" layer="51"/>
<wire x1="-15.748" y1="36.068" x2="-15.748" y2="35.052" width="0" layer="51"/>
<wire x1="-15.748" y1="35.052" x2="-14.605" y2="35.052" width="0" layer="51"/>
<wire x1="-14.605" y1="32.512" x2="-14.605" y2="33.528" width="0" layer="51"/>
<wire x1="-14.605" y1="33.528" x2="-15.748" y2="33.528" width="0" layer="51"/>
<wire x1="-15.748" y1="33.528" x2="-15.748" y2="32.512" width="0" layer="51"/>
<wire x1="-15.748" y1="32.512" x2="-14.605" y2="32.512" width="0" layer="51"/>
<wire x1="-14.605" y1="29.972" x2="-14.605" y2="30.988" width="0" layer="51"/>
<wire x1="-14.605" y1="30.988" x2="-15.748" y2="30.988" width="0" layer="51"/>
<wire x1="-15.748" y1="30.988" x2="-15.748" y2="29.972" width="0" layer="51"/>
<wire x1="-15.748" y1="29.972" x2="-14.605" y2="29.972" width="0" layer="51"/>
<wire x1="-14.605" y1="27.432" x2="-14.605" y2="28.448" width="0" layer="51"/>
<wire x1="-14.605" y1="28.448" x2="-15.748" y2="28.448" width="0" layer="51"/>
<wire x1="-15.748" y1="28.448" x2="-15.7226" y2="27.432" width="0" layer="51"/>
<wire x1="-15.7226" y1="27.432" x2="-14.605" y2="27.432" width="0" layer="51"/>
<wire x1="-14.605" y1="24.892" x2="-14.605" y2="25.908" width="0" layer="51"/>
<wire x1="-14.605" y1="25.908" x2="-15.748" y2="25.908" width="0" layer="51"/>
<wire x1="-15.748" y1="25.908" x2="-15.7226" y2="24.892" width="0" layer="51"/>
<wire x1="-15.7226" y1="24.892" x2="-14.605" y2="24.892" width="0" layer="51"/>
<wire x1="-14.605" y1="22.352" x2="-14.605" y2="23.368" width="0" layer="51"/>
<wire x1="-14.605" y1="23.368" x2="-15.7226" y2="23.368" width="0" layer="51"/>
<wire x1="-15.7226" y1="23.368" x2="-15.7226" y2="22.352" width="0" layer="51"/>
<wire x1="-15.7226" y1="22.352" x2="-14.605" y2="22.352" width="0" layer="51"/>
<wire x1="-14.605" y1="19.812" x2="-14.605" y2="20.828" width="0" layer="51"/>
<wire x1="-14.605" y1="20.828" x2="-15.7226" y2="20.828" width="0" layer="51"/>
<wire x1="-15.7226" y1="20.828" x2="-15.7226" y2="19.812" width="0" layer="51"/>
<wire x1="-15.7226" y1="19.812" x2="-14.605" y2="19.812" width="0" layer="51"/>
<wire x1="-14.605" y1="17.272" x2="-14.605" y2="18.288" width="0" layer="51"/>
<wire x1="-14.605" y1="18.288" x2="-15.7226" y2="18.288" width="0" layer="51"/>
<wire x1="-15.7226" y1="18.288" x2="-15.7226" y2="17.272" width="0" layer="51"/>
<wire x1="-15.7226" y1="17.272" x2="-14.605" y2="17.272" width="0" layer="51"/>
<wire x1="-14.605" y1="14.732" x2="-14.605" y2="15.748" width="0" layer="51"/>
<wire x1="-14.605" y1="15.748" x2="-15.7226" y2="15.748" width="0" layer="51"/>
<wire x1="-15.7226" y1="15.748" x2="-15.7226" y2="14.732" width="0" layer="51"/>
<wire x1="-15.7226" y1="14.732" x2="-14.605" y2="14.732" width="0" layer="51"/>
<wire x1="-14.605" y1="12.192" x2="-14.605" y2="13.208" width="0" layer="51"/>
<wire x1="-14.605" y1="13.208" x2="-15.7226" y2="13.208" width="0" layer="51"/>
<wire x1="-15.7226" y1="13.208" x2="-15.7226" y2="12.192" width="0" layer="51"/>
<wire x1="-15.7226" y1="12.192" x2="-14.605" y2="12.192" width="0" layer="51"/>
<wire x1="-14.605" y1="9.652" x2="-14.605" y2="10.668" width="0" layer="51"/>
<wire x1="-14.605" y1="10.668" x2="-15.7226" y2="10.668" width="0" layer="51"/>
<wire x1="-15.7226" y1="10.668" x2="-15.7226" y2="9.652" width="0" layer="51"/>
<wire x1="-15.7226" y1="9.652" x2="-14.605" y2="9.652" width="0" layer="51"/>
<wire x1="-14.605" y1="7.112" x2="-14.605" y2="8.128" width="0" layer="51"/>
<wire x1="-14.605" y1="8.128" x2="-15.7226" y2="8.128" width="0" layer="51"/>
<wire x1="-15.7226" y1="8.128" x2="-15.7226" y2="7.112" width="0" layer="51"/>
<wire x1="-15.7226" y1="7.112" x2="-14.605" y2="7.112" width="0" layer="51"/>
<wire x1="-14.605" y1="4.572" x2="-14.605" y2="5.588" width="0" layer="51"/>
<wire x1="-14.605" y1="5.588" x2="-15.7226" y2="5.588" width="0" layer="51"/>
<wire x1="-15.7226" y1="5.588" x2="-15.7226" y2="4.572" width="0" layer="51"/>
<wire x1="-15.7226" y1="4.572" x2="-14.605" y2="4.572" width="0" layer="51"/>
<wire x1="-14.605" y1="2.032" x2="-14.605" y2="3.048" width="0" layer="51"/>
<wire x1="-14.605" y1="3.048" x2="-15.7226" y2="3.048" width="0" layer="51"/>
<wire x1="-15.7226" y1="3.048" x2="-15.7226" y2="2.032" width="0" layer="51"/>
<wire x1="-15.7226" y1="2.032" x2="-14.605" y2="2.032" width="0" layer="51"/>
<wire x1="-14.605" y1="-0.508" x2="-14.605" y2="0.508" width="0" layer="51"/>
<wire x1="-14.605" y1="0.508" x2="-15.7226" y2="0.4826" width="0" layer="51"/>
<wire x1="-15.7226" y1="0.4826" x2="-15.7226" y2="-0.508" width="0" layer="51"/>
<wire x1="-15.7226" y1="-0.508" x2="-14.605" y2="-0.508" width="0" layer="51"/>
<wire x1="-0.635" y1="0.508" x2="-0.635" y2="-0.508" width="0" layer="51"/>
<wire x1="-0.635" y1="-0.508" x2="0.508" y2="-0.4826" width="0" layer="51"/>
<wire x1="0.508" y1="-0.4826" x2="0.4826" y2="0.508" width="0" layer="51"/>
<wire x1="0.4826" y1="0.508" x2="-0.635" y2="0.508" width="0" layer="51"/>
<wire x1="-0.635" y1="3.048" x2="-0.635" y2="2.032" width="0" layer="51"/>
<wire x1="-0.635" y1="2.032" x2="0.508" y2="2.0574" width="0" layer="51"/>
<wire x1="0.508" y1="2.0574" x2="0.4826" y2="3.048" width="0" layer="51"/>
<wire x1="0.4826" y1="3.048" x2="-0.635" y2="3.048" width="0" layer="51"/>
<wire x1="-0.635" y1="5.588" x2="-0.635" y2="4.572" width="0" layer="51"/>
<wire x1="-0.635" y1="4.572" x2="0.508" y2="4.572" width="0" layer="51"/>
<wire x1="0.508" y1="4.572" x2="0.4826" y2="5.588" width="0" layer="51"/>
<wire x1="0.4826" y1="5.588" x2="-0.635" y2="5.588" width="0" layer="51"/>
<wire x1="-0.635" y1="8.128" x2="-0.635" y2="7.112" width="0" layer="51"/>
<wire x1="-0.635" y1="7.112" x2="0.4826" y2="7.112" width="0" layer="51"/>
<wire x1="0.4826" y1="7.112" x2="0.4826" y2="8.128" width="0" layer="51"/>
<wire x1="0.4826" y1="8.128" x2="-0.635" y2="8.128" width="0" layer="51"/>
<wire x1="-0.635" y1="10.668" x2="-0.635" y2="9.652" width="0" layer="51"/>
<wire x1="-0.635" y1="9.652" x2="0.4826" y2="9.652" width="0" layer="51"/>
<wire x1="0.4826" y1="9.652" x2="0.4826" y2="10.668" width="0" layer="51"/>
<wire x1="0.4826" y1="10.668" x2="-0.635" y2="10.668" width="0" layer="51"/>
<wire x1="-0.635" y1="13.208" x2="-0.635" y2="12.192" width="0" layer="51"/>
<wire x1="-0.635" y1="12.192" x2="0.4826" y2="12.192" width="0" layer="51"/>
<wire x1="0.4826" y1="12.192" x2="0.4826" y2="13.208" width="0" layer="51"/>
<wire x1="0.4826" y1="13.208" x2="-0.635" y2="13.208" width="0" layer="51"/>
<wire x1="-0.635" y1="15.748" x2="-0.635" y2="14.732" width="0" layer="51"/>
<wire x1="-0.635" y1="14.732" x2="0.4826" y2="14.732" width="0" layer="51"/>
<wire x1="0.4826" y1="14.732" x2="0.4826" y2="15.748" width="0" layer="51"/>
<wire x1="0.4826" y1="15.748" x2="-0.635" y2="15.748" width="0" layer="51"/>
<wire x1="-0.635" y1="18.288" x2="-0.635" y2="17.272" width="0" layer="51"/>
<wire x1="-0.635" y1="17.272" x2="0.4826" y2="17.272" width="0" layer="51"/>
<wire x1="0.4826" y1="17.272" x2="0.4826" y2="18.288" width="0" layer="51"/>
<wire x1="0.4826" y1="18.288" x2="-0.635" y2="18.288" width="0" layer="51"/>
<wire x1="-0.635" y1="20.828" x2="-0.635" y2="19.812" width="0" layer="51"/>
<wire x1="-0.635" y1="19.812" x2="0.4826" y2="19.812" width="0" layer="51"/>
<wire x1="0.4826" y1="19.812" x2="0.4826" y2="20.828" width="0" layer="51"/>
<wire x1="0.4826" y1="20.828" x2="-0.635" y2="20.828" width="0" layer="51"/>
<wire x1="-0.635" y1="23.368" x2="-0.635" y2="22.352" width="0" layer="51"/>
<wire x1="-0.635" y1="22.352" x2="0.4826" y2="22.352" width="0" layer="51"/>
<wire x1="0.4826" y1="22.352" x2="0.4826" y2="23.368" width="0" layer="51"/>
<wire x1="0.4826" y1="23.368" x2="-0.635" y2="23.368" width="0" layer="51"/>
<wire x1="-0.635" y1="25.908" x2="-0.635" y2="24.892" width="0" layer="51"/>
<wire x1="-0.635" y1="24.892" x2="0.4826" y2="24.892" width="0" layer="51"/>
<wire x1="0.4826" y1="24.892" x2="0.4826" y2="25.908" width="0" layer="51"/>
<wire x1="0.4826" y1="25.908" x2="-0.635" y2="25.908" width="0" layer="51"/>
<wire x1="-0.635" y1="28.448" x2="-0.635" y2="27.432" width="0" layer="51"/>
<wire x1="-0.635" y1="27.432" x2="0.4826" y2="27.432" width="0" layer="51"/>
<wire x1="0.4826" y1="27.432" x2="0.4826" y2="28.448" width="0" layer="51"/>
<wire x1="0.4826" y1="28.448" x2="-0.635" y2="28.448" width="0" layer="51"/>
<wire x1="-0.635" y1="30.988" x2="-0.635" y2="29.972" width="0" layer="51"/>
<wire x1="-0.635" y1="29.972" x2="0.4826" y2="29.972" width="0" layer="51"/>
<wire x1="0.4826" y1="29.972" x2="0.4826" y2="30.988" width="0" layer="51"/>
<wire x1="0.4826" y1="30.988" x2="-0.635" y2="30.988" width="0" layer="51"/>
<wire x1="-0.635" y1="33.528" x2="-0.635" y2="32.512" width="0" layer="51"/>
<wire x1="-0.635" y1="32.512" x2="0.4826" y2="32.512" width="0" layer="51"/>
<wire x1="0.4826" y1="32.512" x2="0.4826" y2="33.528" width="0" layer="51"/>
<wire x1="0.4826" y1="33.528" x2="-0.635" y2="33.528" width="0" layer="51"/>
<wire x1="-0.635" y1="36.068" x2="-0.635" y2="35.052" width="0" layer="51"/>
<wire x1="-0.635" y1="35.052" x2="0.4826" y2="35.052" width="0" layer="51"/>
<wire x1="0.4826" y1="35.052" x2="0.4826" y2="36.068" width="0" layer="51"/>
<wire x1="0.4826" y1="36.068" x2="-0.635" y2="36.068" width="0" layer="51"/>
<wire x1="-0.635" y1="38.608" x2="-0.635" y2="37.592" width="0" layer="51"/>
<wire x1="-0.635" y1="37.592" x2="0.4826" y2="37.592" width="0" layer="51"/>
<wire x1="0.4826" y1="37.592" x2="0.4826" y2="38.608" width="0" layer="51"/>
<wire x1="0.4826" y1="38.608" x2="-0.635" y2="38.608" width="0" layer="51"/>
<wire x1="-0.635" y1="41.148" x2="-0.635" y2="40.132" width="0" layer="51"/>
<wire x1="-0.635" y1="40.132" x2="0.4826" y2="40.132" width="0" layer="51"/>
<wire x1="0.4826" y1="40.132" x2="0.4826" y2="41.148" width="0" layer="51"/>
<wire x1="0.4826" y1="41.148" x2="-0.635" y2="41.148" width="0" layer="51"/>
<wire x1="-0.635" y1="43.688" x2="-0.635" y2="42.672" width="0" layer="51"/>
<wire x1="-0.635" y1="42.672" x2="0.4826" y2="42.672" width="0" layer="51"/>
<wire x1="0.4826" y1="42.672" x2="0.4826" y2="43.688" width="0" layer="51"/>
<wire x1="0.4826" y1="43.688" x2="-0.635" y2="43.688" width="0" layer="51"/>
<wire x1="-0.635" y1="46.228" x2="-0.635" y2="45.212" width="0" layer="51"/>
<wire x1="-0.635" y1="45.212" x2="0.4826" y2="45.212" width="0" layer="51"/>
<wire x1="0.4826" y1="45.212" x2="0.4826" y2="46.228" width="0" layer="51"/>
<wire x1="0.4826" y1="46.228" x2="-0.635" y2="46.228" width="0" layer="51"/>
<wire x1="-0.635" y1="48.768" x2="-0.635" y2="47.752" width="0" layer="51"/>
<wire x1="-0.635" y1="47.752" x2="0.4826" y2="47.752" width="0" layer="51"/>
<wire x1="0.4826" y1="47.752" x2="0.4826" y2="48.768" width="0" layer="51"/>
<wire x1="0.4826" y1="48.768" x2="-0.635" y2="48.768" width="0" layer="51"/>
<wire x1="-14.605" y1="-2.159" x2="-0.635" y2="-2.159" width="0" layer="51"/>
<wire x1="-0.635" y1="-2.159" x2="-0.635" y2="50.419" width="0" layer="51"/>
<wire x1="-0.635" y1="50.419" x2="-7.3152" y2="50.419" width="0" layer="51"/>
<wire x1="-7.3152" y1="50.419" x2="-7.9248" y2="50.419" width="0" layer="51"/>
<wire x1="-7.9248" y1="50.419" x2="-14.605" y2="50.419" width="0" layer="51"/>
<wire x1="-14.605" y1="50.419" x2="-14.605" y2="-2.159" width="0" layer="51"/>
<wire x1="-7.3152" y1="50.419" x2="-7.9248" y2="50.419" width="0" layer="51" curve="-180"/>
<text x="-15.8242" y="49.1236" size="1.27" layer="51" ratio="6" rot="SR0">*</text>
<text x="-12.4968" y="-5.4864" size="2.0828" layer="25" ratio="10" rot="SR0">&gt;NAME</text>
<text x="-11.0744" y="52.705" size="2.0828" layer="27" ratio="10" rot="SR0">&gt;VALUE</text>
</package>
</packages>
</library>
<library name="SparkFun-Clocks">
<description>&lt;h3&gt;SparkFun Clocks, Oscillators and Resonators&lt;/h3&gt;
This library contains the real-time clocks, oscillators, resonators, and crystals we use. 
&lt;br&gt;
&lt;br&gt;
We've spent an enormous amount of time creating and checking these footprints and parts, but it is &lt;b&gt; the end user's responsibility&lt;/b&gt; to ensure correctness and suitablity for a given componet or application. 
&lt;br&gt;
&lt;br&gt;If you enjoy using this library, please buy one of our products at &lt;a href=" www.sparkfun.com"&gt;SparkFun.com&lt;/a&gt;.
&lt;br&gt;
&lt;br&gt;
&lt;b&gt;Licensing:&lt;/b&gt; Creative Commons ShareAlike 4.0 International - https://creativecommons.org/licenses/by-sa/4.0/ 
&lt;br&gt;
&lt;br&gt;
You are welcome to use this library for commercial purposes. For attribution, we ask that when you begin to sell your device using our footprint, you email us with a link to the product being sold. We want bragging rights that we helped (in a very small part) to create your 8th world wonder. We would like the opportunity to feature your device on our homepage.</description>
<packages>
<package name="CRYSTAL-SMD-5X3.2-4PAD">
<description>&lt;h3&gt;5x3.2mm SMD Crystal&lt;/h3&gt;
&lt;p&gt;Example: &lt;a href="https://www.sparkfun.com/products/94"&gt;16MHz SMD Crystal&lt;/a&gt; (&lt;a href="https://www.sparkfun.com/datasheets/Components/SPK-5032-16MHZ.pdf"&gt;Datasheet&lt;/a&gt;)&lt;/p&gt;</description>
<wire x1="-0.6" y1="1.7" x2="0.6" y2="1.7" width="0.2032" layer="21"/>
<wire x1="2.6" y1="0.3" x2="2.6" y2="-0.3" width="0.2032" layer="21"/>
<wire x1="0.6" y1="-1.7" x2="-0.6" y2="-1.7" width="0.2032" layer="21"/>
<wire x1="-2.6" y1="0.3" x2="-2.6" y2="-0.3" width="0.2032" layer="21"/>
<smd name="1" x="-1.85" y="-1.15" dx="1.9" dy="1.1" layer="1"/>
<smd name="3" x="1.85" y="1.15" dx="1.9" dy="1.1" layer="1"/>
<smd name="4" x="-1.85" y="1.15" dx="1.9" dy="1.1" layer="1"/>
<smd name="2" x="1.85" y="-1.15" dx="1.9" dy="1.1" layer="1"/>
<text x="0" y="1.905" size="0.6096" layer="25" font="vector" ratio="20" align="bottom-center">&gt;NAME</text>
<text x="0" y="-1.905" size="0.6096" layer="27" font="vector" ratio="20" align="top-center">&gt;VALUE</text>
<wire x1="-2.5" y1="1.6" x2="-2.5" y2="-1.6" width="0.127" layer="51"/>
<wire x1="-2.5" y1="-1.6" x2="2.5" y2="-1.6" width="0.127" layer="51"/>
<wire x1="2.5" y1="-1.6" x2="2.5" y2="1.6" width="0.127" layer="51"/>
<wire x1="2.5" y1="1.6" x2="-2.5" y2="1.6" width="0.127" layer="51"/>
<polygon width="0.127" layer="51">
<vertex x="-2.5" y="1.6"/>
<vertex x="-2.5" y="0.8"/>
<vertex x="-1.3" y="0.8"/>
<vertex x="-1.3" y="1.6"/>
</polygon>
<polygon width="0.127" layer="51">
<vertex x="2.5" y="-1.6"/>
<vertex x="2.5" y="-0.8"/>
<vertex x="1.3" y="-0.8"/>
<vertex x="1.3" y="-1.6"/>
</polygon>
<polygon width="0.127" layer="51">
<vertex x="1.3" y="1.6"/>
<vertex x="1.3" y="0.8"/>
<vertex x="2.5" y="0.8"/>
<vertex x="2.5" y="1.6"/>
</polygon>
<polygon width="0.127" layer="51">
<vertex x="-1.3" y="-1.6"/>
<vertex x="-1.3" y="-0.8"/>
<vertex x="-2.5" y="-0.8"/>
<vertex x="-2.5" y="-1.6"/>
</polygon>
</package>
</packages>
</library>
<library name="PJS">
<packages>
<package name="LCC8">
<wire x1="0.8566" y1="-1.4892" x2="0.8566" y2="1.3892" width="0.1524" layer="51"/>
<wire x1="-0.7216" y1="-1.4892" x2="0.8216" y2="-1.4892" width="0.1524" layer="21"/>
<text x="-1.2236" y="1.7782" size="0.5" layer="25" ratio="10" rot="SR0">&gt;NAME</text>
<text x="-1.3904" y="-2.3324" size="0.5" layer="27" ratio="10" rot="SR0">&gt;VALUE</text>
<smd name="1" x="-0.55" y="1.35" dx="0.8" dy="0.5" layer="1"/>
<wire x1="-0.7216" y1="1.4108" x2="0.8216" y2="1.4108" width="0.1524" layer="21"/>
<wire x1="-0.7434" y1="-1.4892" x2="-0.7434" y2="1.3892" width="0.1524" layer="51"/>
<smd name="2" x="-0.55" y="0.45" dx="0.8" dy="0.5" layer="1"/>
<smd name="3" x="-0.55" y="-0.45" dx="0.8" dy="0.5" layer="1"/>
<smd name="4" x="-0.55" y="-1.35" dx="0.8" dy="0.5" layer="1"/>
<smd name="8" x="0.55" y="1.35" dx="0.8" dy="0.5" layer="1"/>
<smd name="7" x="0.55" y="0.45" dx="0.8" dy="0.5" layer="1"/>
<smd name="6" x="0.55" y="-0.45" dx="0.8" dy="0.5" layer="1"/>
<smd name="5" x="0.55" y="-1.35" dx="0.8" dy="0.5" layer="1"/>
<text x="-1.7042" y="0.7048" size="0.8" layer="21">*</text>
</package>
</packages>
</library>
<library name="SparkFun-Electromechanical">
<description>&lt;h3&gt;SparkFun Electromechanical Parts&lt;/h3&gt;
This library contains electromechanical devices, like motors, speakers,servos, and relays.
&lt;br&gt;
&lt;br&gt;
We've spent an enormous amount of time creating and checking these footprints and parts, but it is &lt;b&gt; the end user's responsibility&lt;/b&gt; to ensure correctness and suitablity for a given componet or application. 
&lt;br&gt;
&lt;br&gt;If you enjoy using this library, please buy one of our products at &lt;a href=" www.sparkfun.com"&gt;SparkFun.com&lt;/a&gt;.
&lt;br&gt;
&lt;br&gt;
&lt;b&gt;Licensing:&lt;/b&gt; Creative Commons ShareAlike 4.0 International - https://creativecommons.org/licenses/by-sa/4.0/ 
&lt;br&gt;
&lt;br&gt;
You are welcome to use this library for commercial purposes. For attribution, we ask that when you begin to sell your device using our footprint, you email us with a link to the product being sold. We want bragging rights that we helped (in a very small part) to create your 8th world wonder. We would like the opportunity to feature your device on our homepage.</description>
<packages>
<package name="PCB_MOUNT_SPEAKER">
<description>&lt;h3&gt;Speaker - PCB Mount&lt;/h3&gt;
&lt;p&gt;PTH speaker. 30mm diameter.&lt;/p&gt;
&lt;p&gt;&lt;a href="http://cdn.sparkfun.com/datasheets/Components/General/PCBspeaker.pdf"&gt;Datasheet&lt;/a&gt;&lt;/p&gt;
&lt;h4&gt;Devices Using&lt;/h4&gt;
&lt;ul&gt;&lt;li&gt;SPEAKER&lt;/li&gt;&lt;/ul&gt;</description>
<circle x="0" y="0" radius="14.605" width="0.2032" layer="21"/>
<pad name="+" x="-7.62" y="0" drill="1.143" shape="square"/>
<pad name="-" x="7.62" y="0" drill="1.143" shape="square" rot="R90"/>
<text x="0" y="14.859" size="0.6096" layer="25" font="vector" ratio="20" align="bottom-center">&gt;NAME</text>
<text x="0" y="14.351" size="0.6096" layer="27" font="vector" ratio="20" align="top-center">&gt;VALUE</text>
</package>
</packages>
</library>
</libraries>
<attributes>
</attributes>
<variantdefs>
</variantdefs>
<classes>
<class number="0" name="default" width="0" drill="0">
</class>
</classes>
<designrules name="default">
<description language="de">&lt;b&gt;EAGLE Design Rules&lt;/b&gt;
&lt;p&gt;
Die Standard-Design-Rules sind so gewählt, dass sie für 
die meisten Anwendungen passen. Sollte ihre Platine 
besondere Anforderungen haben, treffen Sie die erforderlichen
Einstellungen hier und speichern die Design Rules unter 
einem neuen Namen ab.</description>
<description language="en">&lt;b&gt;EAGLE Design Rules&lt;/b&gt;
&lt;p&gt;
The default Design Rules have been set to cover
a wide range of applications. Your particular design
may have different requirements, so please make the
necessary adjustments and save your customized
design rules under a new name.</description>
<param name="layerSetup" value="(1*16)"/>
<param name="mtCopper" value="0.035mm 0.035mm 0.035mm 0.035mm 0.035mm 0.035mm 0.035mm 0.035mm 0.035mm 0.035mm 0.035mm 0.035mm 0.035mm 0.035mm 0.035mm 0.035mm"/>
<param name="mtIsolate" value="1.5mm 0.15mm 0.2mm 0.15mm 0.2mm 0.15mm 0.2mm 0.15mm 0.2mm 0.15mm 0.2mm 0.15mm 0.2mm 0.15mm 0.2mm"/>
<param name="mdWireWire" value="6mil"/>
<param name="mdWirePad" value="6mil"/>
<param name="mdWireVia" value="6mil"/>
<param name="mdPadPad" value="6mil"/>
<param name="mdPadVia" value="6mil"/>
<param name="mdViaVia" value="6mil"/>
<param name="mdSmdPad" value="6mil"/>
<param name="mdSmdVia" value="6mil"/>
<param name="mdSmdSmd" value="6mil"/>
<param name="mdViaViaSameLayer" value="6mil"/>
<param name="mnLayersViaInSmd" value="2"/>
<param name="mdCopperDimension" value="40mil"/>
<param name="mdDrill" value="6mil"/>
<param name="mdSmdStop" value="0mil"/>
<param name="msWidth" value="6mil"/>
<param name="msDrill" value="0.35mm"/>
<param name="msMicroVia" value="9.99mm"/>
<param name="msBlindViaRatio" value="0.5"/>
<param name="rvPadTop" value="0.25"/>
<param name="rvPadInner" value="0.25"/>
<param name="rvPadBottom" value="0.25"/>
<param name="rvViaOuter" value="0.25"/>
<param name="rvViaInner" value="0.25"/>
<param name="rvMicroViaOuter" value="0.25"/>
<param name="rvMicroViaInner" value="0.25"/>
<param name="rlMinPadTop" value="10mil"/>
<param name="rlMaxPadTop" value="20mil"/>
<param name="rlMinPadInner" value="10mil"/>
<param name="rlMaxPadInner" value="20mil"/>
<param name="rlMinPadBottom" value="10mil"/>
<param name="rlMaxPadBottom" value="20mil"/>
<param name="rlMinViaOuter" value="8mil"/>
<param name="rlMaxViaOuter" value="20mil"/>
<param name="rlMinViaInner" value="8mil"/>
<param name="rlMaxViaInner" value="20mil"/>
<param name="rlMinMicroViaOuter" value="4mil"/>
<param name="rlMaxMicroViaOuter" value="20mil"/>
<param name="rlMinMicroViaInner" value="4mil"/>
<param name="rlMaxMicroViaInner" value="20mil"/>
<param name="psTop" value="-1"/>
<param name="psBottom" value="-1"/>
<param name="psFirst" value="-1"/>
<param name="psElongationLong" value="100"/>
<param name="psElongationOffset" value="100"/>
<param name="mvStopFrame" value="1"/>
<param name="mvCreamFrame" value="0"/>
<param name="mlMinStopFrame" value="4mil"/>
<param name="mlMaxStopFrame" value="4mil"/>
<param name="mlMinCreamFrame" value="0mil"/>
<param name="mlMaxCreamFrame" value="0mil"/>
<param name="mlViaStopLimit" value="0mil"/>
<param name="srRoundness" value="0"/>
<param name="srMinRoundness" value="0mil"/>
<param name="srMaxRoundness" value="0mil"/>
<param name="slThermalIsolate" value="10mil"/>
<param name="slThermalsForVias" value="0"/>
<param name="dpMaxLengthDifference" value="10mm"/>
<param name="dpGapFactor" value="2.5"/>
<param name="checkAngle" value="0"/>
<param name="checkFont" value="1"/>
<param name="checkRestrict" value="1"/>
<param name="checkStop" value="0"/>
<param name="checkValues" value="0"/>
<param name="useDiameter" value="13"/>
<param name="maxErrors" value="50"/>
</designrules>
<autorouter>
<pass name="Default">
<param name="RoutingGrid" value="50mil"/>
<param name="AutoGrid" value="1"/>
<param name="Efforts" value="0"/>
<param name="TopRouterVariant" value="1"/>
<param name="tpViaShape" value="round"/>
<param name="PrefDir.1" value="a"/>
<param name="PrefDir.2" value="0"/>
<param name="PrefDir.3" value="0"/>
<param name="PrefDir.4" value="0"/>
<param name="PrefDir.5" value="0"/>
<param name="PrefDir.6" value="0"/>
<param name="PrefDir.7" value="0"/>
<param name="PrefDir.8" value="0"/>
<param name="PrefDir.9" value="0"/>
<param name="PrefDir.10" value="0"/>
<param name="PrefDir.11" value="0"/>
<param name="PrefDir.12" value="0"/>
<param name="PrefDir.13" value="0"/>
<param name="PrefDir.14" value="0"/>
<param name="PrefDir.15" value="0"/>
<param name="PrefDir.16" value="a"/>
<param name="cfVia" value="8"/>
<param name="cfNonPref" value="5"/>
<param name="cfChangeDir" value="2"/>
<param name="cfOrthStep" value="2"/>
<param name="cfDiagStep" value="3"/>
<param name="cfExtdStep" value="0"/>
<param name="cfBonusStep" value="1"/>
<param name="cfMalusStep" value="1"/>
<param name="cfPadImpact" value="4"/>
<param name="cfSmdImpact" value="4"/>
<param name="cfBusImpact" value="0"/>
<param name="cfHugging" value="3"/>
<param name="cfAvoid" value="4"/>
<param name="cfPolygon" value="10"/>
<param name="cfBase.1" value="0"/>
<param name="cfBase.2" value="1"/>
<param name="cfBase.3" value="1"/>
<param name="cfBase.4" value="1"/>
<param name="cfBase.5" value="1"/>
<param name="cfBase.6" value="1"/>
<param name="cfBase.7" value="1"/>
<param name="cfBase.8" value="1"/>
<param name="cfBase.9" value="1"/>
<param name="cfBase.10" value="1"/>
<param name="cfBase.11" value="1"/>
<param name="cfBase.12" value="1"/>
<param name="cfBase.13" value="1"/>
<param name="cfBase.14" value="1"/>
<param name="cfBase.15" value="1"/>
<param name="cfBase.16" value="0"/>
<param name="mnVias" value="20"/>
<param name="mnSegments" value="9999"/>
<param name="mnExtdSteps" value="9999"/>
<param name="mnRipupLevel" value="10"/>
<param name="mnRipupSteps" value="100"/>
<param name="mnRipupTotal" value="100"/>
</pass>
<pass name="Follow-me" refer="Default" active="yes">
</pass>
<pass name="Busses" refer="Default" active="yes">
<param name="cfNonPref" value="4"/>
<param name="cfBusImpact" value="4"/>
<param name="cfHugging" value="0"/>
<param name="mnVias" value="0"/>
</pass>
<pass name="Route" refer="Default" active="yes">
</pass>
<pass name="Optimize1" refer="Default" active="yes">
<param name="cfVia" value="99"/>
<param name="cfExtdStep" value="10"/>
<param name="cfHugging" value="1"/>
<param name="mnExtdSteps" value="1"/>
<param name="mnRipupLevel" value="0"/>
</pass>
<pass name="Optimize2" refer="Optimize1" active="yes">
<param name="cfNonPref" value="0"/>
<param name="cfChangeDir" value="6"/>
<param name="cfExtdStep" value="0"/>
<param name="cfBonusStep" value="2"/>
<param name="cfMalusStep" value="2"/>
<param name="cfPadImpact" value="2"/>
<param name="cfSmdImpact" value="2"/>
<param name="cfHugging" value="0"/>
</pass>
<pass name="Optimize3" refer="Optimize2" active="yes">
<param name="cfChangeDir" value="8"/>
<param name="cfPadImpact" value="0"/>
<param name="cfSmdImpact" value="0"/>
</pass>
<pass name="Optimize4" refer="Optimize3" active="yes">
<param name="cfChangeDir" value="25"/>
</pass>
</autorouter>
<elements>
<element name="B1" library="SparkFun-Boards" package="UNO_R3_SHIELD" value="ARDUINO_UNO_R3_SHIELDBASIC" x="33.02" y="27.94" rot="R270"/>
<element name="C1" library="adafruit" package="C0805" value="" x="44.45" y="10.16"/>
<element name="C2" library="adafruit" package="C0805" value="" x="30.48" y="11.43"/>
<element name="C3" library="adafruit" package="C0805" value="" x="20.32" y="12.7"/>
<element name="R1" library="adafruit" package="M0805" value="" x="15.24" y="11.43"/>
<element name="U1" library="Atmel_By_element14_Batch_1-00" package="DIP254P1524X483-40" value="ATMEGA1284P-PU" x="54.61" y="31.75" rot="R90">
<attribute name="MPN" value="ATMEGA1284P-PU" x="54.61" y="31.75" size="1.778" layer="27" rot="R90" display="off"/>
<attribute name="OC_FARNELL" value="1715481" x="54.61" y="31.75" size="1.778" layer="27" rot="R90" display="off"/>
<attribute name="OC_NEWARK" value="15R0264" x="54.61" y="31.75" size="1.778" layer="27" rot="R90" display="off"/>
<attribute name="PACKAGE" value="PDIP-40" x="54.61" y="31.75" size="1.778" layer="27" rot="R90" display="off"/>
<attribute name="SUPPLIER" value="Atmel" x="54.61" y="31.75" size="1.778" layer="27" rot="R90" display="off"/>
</element>
<element name="Y1" library="SparkFun-Clocks" package="CRYSTAL-SMD-5X3.2-4PAD" value="16MHz" x="36.83" y="12.7">
<attribute name="PROD_ID" value="XTAL-08218" x="36.83" y="12.7" size="1.778" layer="27" display="off"/>
<attribute name="SF_ID" value="COM-00094" x="36.83" y="12.7" size="1.778" layer="27" display="off"/>
</element>
<element name="U$1" library="PJS" package="LCC8" value="M41T62-LCC8" x="59.69" y="13.97"/>
<element name="B2" library="SparkFun-Boards" package="MICRO-SDCARD" value="MICRO-SDCARD" x="74.93" y="12.7"/>
<element name="LS1" library="SparkFun-Electromechanical" package="PCB_MOUNT_SPEAKER" value="SPEAKER" x="22.86" y="34.29" rot="R90">
<attribute name="PROD_ID" value="COMP-11789" x="22.86" y="34.29" size="1.778" layer="27" rot="R90" display="off"/>
<attribute name="SF_SKU" value="COM-11089" x="22.86" y="34.29" size="1.778" layer="27" rot="R90" display="off"/>
</element>
</elements>
<signals>
<signal name="N$1">
<contactref element="Y1" pad="3"/>
<contactref element="U1" pad="12"/>
<contactref element="C1" pad="1"/>
<wire x1="38.68" y1="13.85" x2="34.29" y2="16.51" width="0" layer="19" extent="1-1"/>
<wire x1="43.6" y1="10.16" x2="38.68" y2="13.85" width="0" layer="19" extent="1-1"/>
</signal>
<signal name="N$2">
<contactref element="Y1" pad="1"/>
<contactref element="U1" pad="13"/>
<contactref element="C2" pad="1"/>
<wire x1="34.98" y1="11.55" x2="36.83" y2="16.51" width="0" layer="19" extent="1-1"/>
<wire x1="29.63" y1="11.43" x2="34.98" y2="11.55" width="0" layer="19" extent="1-1"/>
</signal>
<signal name="GND">
<contactref element="C2" pad="2"/>
<contactref element="C1" pad="2"/>
<contactref element="B2" pad="GND"/>
<wire x1="31.33" y1="11.43" x2="45.3" y2="10.16" width="0" layer="19" extent="1-1"/>
<wire x1="76.81" y1="7.18" x2="31.33" y2="11.43" width="0" layer="19" extent="1-16"/>
</signal>
<signal name="N$3">
<contactref element="U1" pad="10"/>
<contactref element="U1" pad="30"/>
<contactref element="C3" pad="1"/>
<contactref element="R1" pad="2"/>
<wire x1="29.21" y1="16.51" x2="31.75" y2="31.75" width="0" layer="19" extent="1-1"/>
<wire x1="19.47" y1="12.7" x2="29.21" y2="16.51" width="0" layer="19" extent="1-1"/>
<wire x1="16.19" y1="11.43" x2="19.47" y2="12.7" width="0" layer="19" extent="1-1"/>
</signal>
<signal name="N$5">
<contactref element="U1" pad="31"/>
<contactref element="C3" pad="2"/>
<contactref element="U1" pad="11"/>
<wire x1="31.75" y1="16.51" x2="29.21" y2="31.75" width="0" layer="19" extent="1-1"/>
<wire x1="21.17" y1="12.7" x2="31.75" y2="16.51" width="0" layer="19" extent="1-1"/>
</signal>
<signal name="N$4">
<contactref element="R1" pad="1"/>
<contactref element="U1" pad="9"/>
<wire x1="14.29" y1="11.43" x2="26.67" y2="16.51" width="0" layer="19" extent="1-1"/>
</signal>
<signal name="VSS">
<contactref element="U$1" pad="3"/>
</signal>
<signal name="VCC">
<contactref element="U$1" pad="5"/>
</signal>
<signal name="VDD">
<contactref element="B2" pad="VCC"/>
</signal>
</signals>
</board>
</drawing>
<compatibility>
<note version="6.3" minversion="6.2.2" severity="warning">
Since Version 6.2.2 text objects can contain more than one line,
which will not be processed correctly with this version.
</note>
</compatibility>
</eagle>
